{
  "intentIds": {
    "timetable": "72a89fab-63db-4dd0-98bf-95b9222ca982",
    "groupticket": "64deba80-d25d-42ed-bb0c-1c5247c4529a",
    "navigation": "5923aefc-dcc6-48ea-9c70-18476fa7eca1",
    "customerData": "94dfab04-de21-4dd0-bfc3-94f6e719ebe9",
    "stageNavigation": "99232c55-3539-45c8-af98-d26418e1556b",
    "begruessung": "86ddf252-7ff6-41e3-9beb-6cdde9347470",
    "correction": {
      "zipCode": "2dba30ab-43e8-459d-a5da-1c1713790978",
      "numberTickets": "19068f16-623f-4196-9880-9f7f4c481a7a",
      "last-name": "3e2022cb-0330-46a4-b08c-aa9f5485d9f3",
      "given-name": "2e12350c-e7af-44a3-94e5-f689093dd527",
      "date": "df790e5c-8916-4281-b5f6-8fd624f7f621",
      "email": "66bd88ce-f60a-4637-ad63-be0a3fa9b917",
      "geo-city": "cb832c48-f093-428f-bf17-b46e343059fb",
      "street-address": "367b52a9-c352-489c-9e5b-a3c5a96d0165"
    }
  },
  "mappings": {
    "timetable": {
      "artist": "artist",
      "date": "date",
      "time": "time",
      "timePeriod": "time-period",
      "stage": "stage",
      "whatsNext": "WhatsNext",
      "all": "all"
    },
    "navigation": {
      "startLocation": "startLocation",
      "location": "location",
      "stadt": "geo-city",
      "postleitzahl": "zip-code",
      "strasse": "street-address"
    },
    "stageNavigation": {
      "stage": "stage"
    },
    "customerData": {
      "ticketanzahl": "numberTickets",
      "geburtsdatum": "date",
      "email": "email",
      "strasse": "street-address",
      "stadt": "geo-city",
      "postleitzahl": "zip-code",
      "vorname": "given-name",
      "nachname": "last-name"
    }
  },
  "url": {
    "website": "http://www.rock-im-park.com/spielplan",
    "festivalLocation": "/Rock+im+Park/@49.4032422,11.0075547,10.01z/",
    "anreiseHomepage": "http://www.rock-im-park.com/info/anreise-strich-camping"
  },
  "google": {
    "apiKey": "AIzaSyC6TituVIMeSQvq_LJvuD1JOTeLB3HqgB0"
  },
  "motionAI": {
    "apiKey": "bc71236cbc7104199839ccea2d5180b8",
    "botIDFacebook": 82678,
    "botIDWebchat": 82676,
    "facebookStartModuleCorrection": {
      "datum": 1167189,
      "postleitzahl": 1167187,
      "vorname": 1167190,
      "nachname": 1167191,
      "strasse": 1167192,
      "stadt": 1167193,
      "email": 1167193,
      "ticketanzahl": 1167575
    },
    "webchatStartModuleCorrection": {
      "datum": 1167144,
      "postleitzahl": 1162740,
      "vorname": 1167148,
      "nachname": 1167152,
      "strasse": 1167153,
      "stadt": 1167155,
      "email": 1167158,
      "ticketanzahl": 1167550
    },
    "completionModuleWebchat": 1168617,
    "completionModuleFacebook": 1185542,
    "welcomeModuleWebchat": 1162735,
    "welcomeModuleFacebook": 1185528
  }
}
